%!PS-Adobe-3.0 EPSF-3.0
%%Creator: cairo 1.13.1 (http://cairographics.org)
%%CreationDate: Mon Sep  8 15:30:49 2014
%%Pages: 1
%%DocumentData: Clean7Bit
%%LanguageLevel: 2
%%BoundingBox: 0 -1 570 520
%%EndComments
%%BeginProlog
save
50 dict begin
/q { gsave } bind def
/Q { grestore } bind def
/cm { 6 array astore concat } bind def
/w { setlinewidth } bind def
/J { setlinecap } bind def
/j { setlinejoin } bind def
/M { setmiterlimit } bind def
/d { setdash } bind def
/m { moveto } bind def
/l { lineto } bind def
/c { curveto } bind def
/h { closepath } bind def
/re { exch dup neg 3 1 roll 5 3 roll moveto 0 rlineto
      0 exch rlineto 0 rlineto closepath } bind def
/S { stroke } bind def
/f { fill } bind def
/f* { eofill } bind def
/n { newpath } bind def
/W { clip } bind def
/W* { eoclip } bind def
/BT { } bind def
/ET { } bind def
/pdfmark where { pop globaldict /?pdfmark /exec load put }
    { globaldict begin /?pdfmark /pop load def /pdfmark
    /cleartomark load def end } ifelse
/BDC { mark 3 1 roll /BDC pdfmark } bind def
/EMC { mark /EMC pdfmark } bind def
/cairo_store_point { /cairo_point_y exch def /cairo_point_x exch def } def
/Tj { show currentpoint cairo_store_point } bind def
/TJ {
  {
    dup
    type /stringtype eq
    { show } { -0.001 mul 0 cairo_font_matrix dtransform rmoveto } ifelse
  } forall
  currentpoint cairo_store_point
} bind def
/cairo_selectfont { cairo_font_matrix aload pop pop pop 0 0 6 array astore
    cairo_font exch selectfont cairo_point_x cairo_point_y moveto } bind def
/Tf { pop /cairo_font exch def /cairo_font_matrix where
      { pop cairo_selectfont } if } bind def
/Td { matrix translate cairo_font_matrix matrix concatmatrix dup
      /cairo_font_matrix exch def dup 4 get exch 5 get cairo_store_point
      /cairo_font where { pop cairo_selectfont } if } bind def
/Tm { 2 copy 8 2 roll 6 array astore /cairo_font_matrix exch def
      cairo_store_point /cairo_font where { pop cairo_selectfont } if } bind def
/g { setgray } bind def
/rg { setrgbcolor } bind def
/d1 { setcachedevice } bind def
%%EndProlog
%%BeginSetup
%%EndSetup
%%Page: 1 1
%%BeginPageSetup
%%PageBoundingBox: 0 -1 570 520
%%EndPageSetup
q 0 -1 570 521 rectclip q
0.137255 0.121569 0.12549 rg
75.719 407.948 m 75.051 407.639 74.379 407.331 73.711 407.022 c 51.191 
437.178 36.102 471.483 20.008 505.268 c 18.793 456.725 34.852 407.862 67.934
 374.616 c 90.918 398.135 108.691 426.128 130.965 448.924 c 103.273 468.483
 72.473 491.299 37.621 507.729 c 32.473 510.159 26.77 511.409 21.324 513.206
 c 29.41 494.342 38.641 477.174 47.852 459.995 c 57.152 442.651 66.43 425.296
 75.719 407.948 c 8.82 257.495 m 31.531 239.858 50.668 222.28 63.164 198.288
 c 67.945 189.104 74.715 180.827 81.363 172.784 c 137.582 104.745 208.152
 54.03 282.031 7.397 c 283.586 6.421 287.09 7.229 289.004 8.354 c 296.828
 12.956 304.707 17.569 311.98 22.964 c 347.938 49.628 384.496 75.573 419.328
 103.647 c 452.82 130.643 482.84 161.479 506.059 198.116 c 519.531 219.374
 537.43 235.846 559.219 251.132 c 550.188 261.913 540.93 272.96 531.34 284.409
 c 535.227 284.635 538.582 284.831 543.723 285.132 c 527.414 301.116 522.246
 321.323 514.309 340.221 c 510.285 349.799 505.203 359.108 499.41 367.741
 c 459.008 427.964 400.793 459.815 330.781 472.35 c 314.395 475.284 304.277
 485.94 303.609 502.729 c 290.203 498.428 276.426 494.479 268.906 481.378
 c 266.215 476.678 263.199 475.507 258.559 474.69 c 240.117 471.444 221.234
 469.483 203.434 464.042 c 138.645 444.229 87.25 407.007 57.09 344.698 c
 48.359 326.655 41.332 307.862 25.379 292.737 c 30.477 292.354 33.965 292.096
 37.723 291.815 c 27.875 280.124 18.496 268.983 8.82 257.495 c 487.32 393.983
 m 487.727 393.643 l 491.547 388.143 495.371 382.647 499.266 377.049 c 538.926
 411.706 551.836 478.924 544.465 513.753 c 501.898 498.936 467.621 471.061
 432.246 447.014 c 449.594 429.616 466.367 412.753 483.23 395.979 c 484.246
 394.967 485.941 394.632 487.32 393.983 c 157.551 449.952 m 187.402 465.374
 219.199 474.553 252.641 477.87 c 258.906 478.491 263.23 480.331 267.527
 486.104 c 277.812 499.936 293.664 504.854 310.07 507.725 c 310.34 507.772
 310.754 506.983 311.102 506.581 c 305.379 492.663 313.355 479.893 329.617
 476.19 c 345.793 472.503 362.191 469.342 377.879 464.116 c 393.559 458.893
 408.477 451.397 422.949 445.225 c 442.332 458.596 461.504 472.694 481.566
 485.385 c 497.598 495.53 514.281 504.893 531.473 512.889 c 547.875 520.518
 550.379 518.132 550.457 500.385 c 550.641 458.104 540.633 419.139 513.367
 385.745 c 509.543 381.069 503.246 376.604 502.73 371.565 c 502.238 366.807
 508.125 361.553 510.719 356.28 c 514.734 348.112 519.176 340.014 521.926
 331.405 c 528.008 312.401 536.992 295.428 553.582 281.299 c 548.41 281.038
 544.676 280.846 540.918 280.659 c 549.332 269.339 557.543 258.288 565.449
 247.651 c 559.223 244.448 553.711 242.663 549.508 239.26 c 534.055 226.764
 519.906 213.1 509.148 195.971 c 485.625 158.534 454.16 128.128 420.938 
99.507 c 380.199 64.417 336.516 33.315 290.973 4.776 c 286.555 2.007 283.289
 1.596 278.684 4.51 c 217.492 43.139 159.191 85.491 108.066 137.034 c 85.699
 159.581 66.609 184.534 50.156 211.936 c 39.434 229.799 22.738 243.296 3.629
 255.428 c 11.699 266.159 19.82 276.956 28.203 288.104 c 24.656 288.409 
21.156 288.702 15.258 289.206 c 44.359 310.319 48.699 344.577 66.949 370.655
 c 28.297 407.104 14.613 452.983 15.641 504.471 c 15.891 517.022 18.211 
519.237 30.113 514.518 c 42.504 509.604 54.859 503.964 66.074 496.827 c 
90.27 481.432 113.73 464.878 137.473 448.768 c 138.727 447.921 142.957 445.389
 144.426 444.116 c h
157.551 449.952 m f*
5 w
0 J
0 j
[] 0.0 d
10 M 87.84 394.007 m 87.172 393.698 86.5 393.389 85.832 393.085 c 63.312 423.237
 36.102 471.483 20.008 505.268 c 18.793 456.725 33.84 407.663 66.926 374.413
 c 89.91 397.936 115.156 420.471 137.43 443.268 c 109.738 462.827 72.473
 491.299 37.621 507.729 c 32.473 510.159 26.77 511.409 21.324 513.206 c 
29.41 494.342 38.641 477.174 47.852 459.995 c 57.152 442.651 78.551 411.358
 87.84 394.007 c h
8.82 257.495 m 31.531 239.858 50.668 222.28 63.164 198.288 c 67.945 189.104
 74.715 180.827 81.363 172.784 c 137.582 104.745 208.152 54.03 282.031 7.397
 c 283.586 6.421 287.09 7.229 289.004 8.354 c 296.828 12.956 304.707 17.569
 311.98 22.964 c 347.938 49.628 384.496 75.573 419.328 103.647 c 452.82 
130.643 482.84 161.479 506.059 198.116 c 519.531 219.374 537.43 235.846 
559.219 251.132 c 550.188 261.913 540.93 272.96 531.34 284.409 c 535.227
 284.635 538.582 284.831 543.723 285.132 c 527.414 301.116 522.246 321.323
 514.309 340.221 c 510.285 349.799 505.203 359.108 499.41 367.741 c 459.008
 427.964 400.793 459.815 330.781 472.35 c 314.395 475.284 304.277 485.94
 303.609 502.729 c 290.203 498.428 276.426 494.479 268.906 481.378 c 266.215
 476.678 263.199 475.507 258.559 474.69 c 240.117 471.444 221.234 469.483
 203.434 464.042 c 138.645 444.229 87.25 407.007 57.09 344.698 c 48.359 
326.655 41.332 307.862 25.379 292.737 c 30.477 292.354 33.965 292.096 37.723
 291.815 c 27.875 280.124 18.496 268.983 8.82 257.495 c h
487.32 393.983 m 487.727 393.643 l 491.547 388.143 495.371 382.647 499.266
 377.049 c 538.926 411.706 551.836 478.924 544.465 513.753 c 501.898 498.936
 467.621 471.061 432.246 447.014 c 449.594 429.616 466.367 412.753 483.23
 395.979 c 484.246 394.967 485.941 394.632 487.32 393.983 c h
157.551 449.952 m 187.402 465.374 219.199 474.553 252.641 477.87 c 258.906
 478.491 263.23 480.331 267.527 486.104 c 277.812 499.936 293.664 504.854
 310.07 507.725 c 310.34 507.772 310.754 506.983 311.102 506.581 c 305.379
 492.663 313.355 479.893 329.617 476.19 c 345.793 472.503 362.191 469.342
 377.879 464.116 c 393.559 458.893 408.477 451.397 422.949 445.225 c 442.332
 458.596 461.504 472.694 481.566 485.385 c 497.598 495.53 514.281 504.893
 531.473 512.889 c 547.875 520.518 550.379 518.132 550.457 500.385 c 550.641
 458.104 540.633 419.139 513.367 385.745 c 509.543 381.069 503.246 376.604
 502.73 371.565 c 502.238 366.807 508.125 361.553 510.719 356.28 c 514.734
 348.112 519.176 340.014 521.926 331.405 c 528.008 312.401 536.992 295.428
 553.582 281.299 c 548.41 281.038 544.676 280.846 540.918 280.659 c 549.332
 269.339 557.543 258.288 565.449 247.651 c 559.223 244.448 553.711 242.663
 549.508 239.26 c 534.055 226.764 519.906 213.1 509.148 195.971 c 485.625
 158.534 454.16 128.128 420.938 99.507 c 380.199 64.417 336.516 33.315 290.973
 4.776 c 286.555 2.007 283.289 1.596 278.684 4.51 c 217.492 43.139 159.191
 85.491 108.066 137.034 c 85.699 159.581 66.609 184.534 50.156 211.936 c
 39.434 229.799 22.738 243.296 3.629 255.428 c 11.699 266.159 19.82 276.956
 28.203 288.104 c 24.656 288.409 21.156 288.702 15.258 289.206 c 44.359 
310.319 48.699 344.577 66.949 370.655 c 28.297 407.104 14.613 452.983 15.641
 504.471 c 15.891 517.022 18.211 519.237 30.113 514.518 c 42.504 509.604
 54.859 503.964 66.074 496.827 c 90.27 481.432 113.73 464.878 137.473 448.768
 c 138.727 447.921 142.957 445.389 144.426 444.116 c h
157.551 449.952 m S
174.102 311.53 m 172.184 311.53 170.609 311.491 169.148 311.409 c 163.793
 311.112 160.742 310.022 158.938 307.764 c 157.188 305.577 156.777 302.401
 157.602 297.456 c 159.922 283.565 166.344 271.878 176.691 262.721 c 182.23
 257.819 189.41 255.225 197.453 255.225 c 213.93 255.225 228.824 266.092
 232.094 280.503 c 233.016 284.569 232.039 290.913 229.164 293.507 c 225.418
 296.885 221.031 299.362 215.953 302.225 c 213.766 303.46 211.5 304.741 
209.117 306.186 c 206.418 307.827 l 206.852 304.698 l 209.148 288.21 202.199
 279.049 193.98 271.807 c 181.277 288.257 180.957 298.807 184.426 309.491
 c 185.066 311.452 l 183 311.452 l 181.297 311.452 179.703 311.475 178.176
 311.495 c 176.766 311.51 175.418 311.53 174.102 311.53 c 243.484 217.026
 m 242.676 220.878 241.98 224.206 241.055 227.487 c 237.062 241.608 230.969
 246.272 215.98 246.674 c 213.414 246.741 210.824 246.753 208.852 246.753
 c 203.105 246.741 l 194.84 246.741 186.098 246.913 178.086 248.936 c 153.344
 255.186 135.191 270.397 125.582 292.928 c 120.41 305.053 121.047 317.464
 127.332 326.971 c 133.57 336.413 144.5 341.827 157.324 341.827 c 158.824
 341.827 160.367 341.749 161.906 341.604 c 169.75 340.846 176.25 339.393
 181.773 337.155 c 209.477 325.928 231.316 308.128 246.68 284.245 c 259.973
 263.581 260.906 242.592 249.457 221.866 c 248.34 219.842 246.957 217.952
 245.211 215.557 c 244.855 215.073 244.488 214.569 244.109 214.042 c 243.891
 215.077 243.684 216.069 243.484 217.026 c f*
197.449 256.725 m 190.277 256.725 183.215 258.952 177.684 263.842 c 167.523
 272.839 161.316 284.331 159.082 297.706 c 157.602 306.565 160.164 309.405
 169.23 309.913 c 170.832 310.003 172.441 310.03 174.102 310.03 c 176.84
 310.03 179.73 309.952 183 309.952 c 177.664 293.53 184.242 281.62 193.77
 269.643 c 204.016 278.346 210.664 288.19 208.34 304.905 c 216.215 300.12
 222.945 297.096 228.156 292.393 c 230.582 290.206 231.449 284.436 230.633
 280.835 c 227.273 266.046 212.137 256.725 197.449 256.725 c 157.324 343.327
 m 129.609 343.327 112.828 319.014 124.199 292.339 c 134.27 268.725 153.203
 253.674 177.719 247.483 c 185.844 245.428 194.465 245.245 203.105 245.245
 c 205.023 245.245 206.938 245.253 208.852 245.253 c 211.223 245.253 213.594
 245.237 215.941 245.174 c 229.961 244.796 235.758 240.706 239.609 227.081
 c 240.984 222.214 241.852 217.202 243.363 210.409 c 246.598 215.057 248.996
 217.924 250.77 221.139 c 262.84 242.987 261.125 264.565 247.941 285.053
 c 231.965 309.889 209.621 327.487 182.336 338.546 c 175.988 341.116 168.91
 342.436 162.051 343.096 c 160.441 343.249 158.867 343.327 157.324 343.327
 c 197.449 253.725 m 205.426 253.725 213.434 256.225 219.996 260.768 c 227
 265.612 231.816 272.503 233.555 280.171 c 234.457 284.135 233.777 291.362
 230.168 294.62 c 226.301 298.112 221.848 300.624 216.691 303.534 c 214.512
 304.76 212.258 306.034 209.895 307.467 c 204.496 310.749 l 205.367 304.491
 l 207.453 289.507 201.547 280.811 194.18 274.007 c 185.621 285.342 181.445
 295.464 185.852 309.026 c 187.129 312.952 l 183 312.952 l 181.305 312.952
 179.715 312.975 178.195 312.995 c 176.777 313.01 175.422 313.03 174.102
 313.03 c 172.156 313.03 170.555 312.991 169.062 312.905 c 164.957 312.678
 160.402 311.999 157.766 308.702 c 155.152 305.436 155.516 300.846 156.125
 297.21 c 158.504 282.967 165.086 270.987 175.695 261.596 c 181.512 256.448
 189.035 253.725 197.449 253.725 c 157.324 340.327 m 158.777 340.327 160.27
 340.253 161.762 340.108 c 169.461 339.37 175.824 337.948 181.211 335.764
 c 208.621 324.655 230.223 307.049 245.418 283.432 c 258.391 263.268 259.309
 242.796 248.145 222.589 c 247.262 220.999 246.191 219.456 244.883 217.655
 c 244.102 221.401 243.414 224.659 242.496 227.897 c 238.328 242.635 231.648
 247.753 216.02 248.174 c 213.438 248.245 210.832 248.253 208.852 248.253
 c 208.836 248.253 l 207.883 248.253 206.926 248.249 205.973 248.249 c 205.016
 248.245 204.062 248.245 203.105 248.245 c 194.934 248.245 186.297 248.409
 178.449 250.389 c 154.184 256.522 136.379 271.432 126.961 293.514 c 121.992
 305.171 122.582 317.061 128.582 326.143 c 134.539 335.155 145.012 340.327
 157.324 340.327 c f
358 309.444 m 355.941 308.382 354.012 307.409 352.176 306.483 c 348.223
 304.487 344.809 302.764 341.406 300.831 c 335.309 297.37 333.125 291.694
 334.918 283.971 c 338.129 270.132 353.992 258.87 370.277 258.87 c 376.168
 258.87 381.598 260.413 385.977 263.335 c 399.207 272.155 407.223 285.827
 409.805 303.964 c 410.289 307.385 406.742 313.178 403.68 313.964 c 399.359
 315.073 394.883 315.178 390.137 315.288 c 388.234 315.335 386.266 315.378
 384.277 315.495 c 382.164 315.616 l 382.75 313.581 l 387.605 296.674 381.105
 285.382 372.977 275.811 c 361.922 285.928 358.203 295.311 360.168 307.882
 c 360.625 310.799 l h
317.895 214.018 m 303.746 232.667 300.527 251.214 308.328 269.194 c 325.453
 308.678 355.535 332.878 397.746 341.124 c 400.641 341.69 403.492 341.975
 406.23 341.975 c 417.715 341.975 427.285 336.971 433.914 327.507 c 441.914
 316.081 442.004 303.132 434.184 287.913 c 421.262 262.76 392.16 245.858
 361.773 245.858 c 361.77 245.858 l 359.512 245.858 357.23 245.956 354.996
 246.143 c 351.984 246.405 349.449 246.577 346.859 246.585 c 346.711 246.585
 l 331.035 246.585 324.145 241.19 320.371 225.979 c 319.648 223.065 319.07
 220.085 318.402 216.632 c 318.242 215.799 318.074 214.928 317.895 214.018
 c f*
373.117 273.671 m 382.969 284.952 389.102 296.885 384.191 313.995 c 391.078
 313.6 397.438 314.018 403.305 312.51 c 405.641 311.913 408.691 306.796 
408.316 304.174 c 406.012 287.975 399.105 273.889 385.145 264.581 c 380.793
 261.678 375.617 260.37 370.277 260.37 c 355.562 260.37 339.625 270.323 
336.379 284.307 c 334.906 290.651 336.141 296.116 342.145 299.526 c 347.121
 302.354 352.301 304.815 358.688 308.112 c 356.285 292.745 362.723 282.827
 373.117 273.671 c 406.23 343.479 m 403.367 343.479 400.43 343.178 397.457
 342.596 c 354.762 334.257 324.121 309.378 306.953 269.792 c 298.129 249.456
 303.383 229.436 318.727 210.53 c 320.016 216.858 320.754 221.28 321.828
 225.616 c 325.449 240.221 331.688 245.081 346.711 245.081 c 346.855 245.081
 l 349.527 245.077 352.203 244.882 354.867 244.651 c 357.172 244.456 359.473
 244.358 361.773 244.358 c 392.254 244.358 422.188 261.284 435.516 287.225
 c 442.492 300.799 444.512 314.991 435.145 328.366 c 427.844 338.796 417.574
 343.479 406.23 343.479 c 372.844 277.991 m 363.102 287.323 359.844 296.089
 361.648 307.647 c 362.562 313.487 l 357.312 310.776 l 355.262 309.717 353.332
 308.745 351.496 307.819 c 347.527 305.819 344.098 304.089 340.664 302.135
 c 336.027 299.503 331.016 294.155 333.457 283.632 c 335.16 276.299 340.09
 269.546 347.34 264.616 c 354.109 260.01 362.469 257.37 370.277 257.37 c
 376.465 257.37 382.18 258.999 386.809 262.085 c 400.41 271.155 408.645 
285.174 411.289 303.753 c 411.926 308.229 407.52 314.526 404.051 315.417
 c 399.566 316.569 395.004 316.674 390.172 316.788 c 388.281 316.831 386.328
 316.878 384.363 316.991 c 380.141 317.233 l 381.309 313.167 l 385.766 297.635
 380.211 286.987 372.844 277.991 c 406.23 340.479 m 417.203 340.479 426.352
 335.694 432.688 326.647 c 440.336 315.721 440.391 303.276 432.848 288.596
 c 420.176 263.932 391.613 247.358 361.773 247.358 c 359.555 247.358 357.316
 247.452 355.125 247.639 c 352.488 247.866 349.66 248.077 346.863 248.081
 c 346.711 248.081 l 330.379 248.081 322.844 242.19 318.918 226.342 c 318.238
 223.608 317.691 220.835 317.082 217.686 c 305.004 234.936 302.52 252.038
 309.703 268.596 c 318.07 287.893 329.785 303.698 344.516 315.577 c 359.309
 327.503 377.312 335.604 398.031 339.651 c 400.832 340.198 403.59 340.479
 406.23 340.479 c f
282.926 154.198 m 281.457 154.198 279.945 154.862 278.305 156.225 c 275.547
 158.51 272.777 160.784 270.008 163.053 c 264.996 167.159 259.816 171.401
 254.828 175.682 c 254.352 176.092 253.934 176.948 253.531 177.839 c 254.363
 178.26 255.18 178.635 255.766 178.647 c 259.684 178.741 263.855 178.78 
269.289 178.78 c 271.711 178.78 274.137 178.772 276.559 178.764 c 278.988
 178.757 281.414 178.749 283.844 178.749 c 286.16 178.749 288.477 178.757
 290.793 178.768 c 293.105 178.776 295.414 178.784 297.723 178.784 c 302.77
 178.784 306.652 178.741 310.305 178.639 c 310.832 178.628 311.672 178.178
 312.465 177.725 c 312.168 177.046 311.859 176.421 311.535 176.143 c 305.59
 171.069 299.438 166.014 293.488 161.132 c 291.477 159.475 289.457 157.819
 287.445 156.159 c 285.848 154.839 284.371 154.198 282.926 154.198 c f*
297.723 181.284 m 293.098 181.284 288.469 181.249 283.844 181.249 c 278.992
 181.249 274.141 181.28 269.289 181.28 c 264.762 181.28 260.234 181.253 
255.707 181.147 c 253.859 181.104 252.043 179.757 250.215 179.01 c 251.188
 177.245 251.766 175.018 253.199 173.788 c 260.922 167.159 268.875 160.803
 276.707 154.299 c 278.789 152.569 280.859 151.698 282.926 151.698 c 284.957
 151.698 286.988 152.538 289.035 154.229 c 297.094 160.878 305.211 167.46
 313.156 174.241 c 314.402 175.303 314.875 177.264 315.703 178.811 c 313.926
 179.628 312.172 181.089 310.371 181.139 c 306.16 181.257 301.941 181.284
 297.723 181.284 c 297.723 176.284 m 301.617 176.284 304.812 176.26 307.742
 176.202 c 302.496 171.76 297.121 167.346 291.902 163.061 c 289.887 161.405
 287.867 159.749 285.855 158.085 c 284.738 157.167 283.754 156.698 282.926
 156.698 c 282.074 156.698 281.059 157.186 279.902 158.147 c 277.137 160.44
 274.316 162.753 271.59 164.987 c 267.133 168.639 262.539 172.401 258.078
 176.194 c 261.344 176.253 264.902 176.28 269.293 176.28 c 271.715 176.28
 274.133 176.272 276.555 176.264 c 278.984 176.257 281.414 176.249 283.844
 176.249 c 286.164 176.249 288.484 176.257 290.801 176.268 c 293.109 176.276
 295.418 176.284 297.723 176.284 c f
73.309 237.53 m 136.441 167.569 195.73 92.155 259.938 20.999 c 247.5 26.151
 81.844 218.878 73.309 237.53 c f*
71.023 236.96 m 134.152 166.999 195.465 92.796 259.672 21.639 c 247.234
 26.792 79.559 218.307 71.023 236.96 c h
71.023 236.96 m S
266.949 100.178 m 271.609 101.78 277.691 102.741 284.035 102.741 c 290.348
 102.741 295.996 101.827 300.371 100.178 c h
266.949 100.178 m f*
284.035 105.241 m 273.086 105.241 262.141 102.471 257.816 97.678 c 309.055
 97.678 l 304.102 102.917 294.066 105.241 284.035 105.241 c f
487.316 393.983 m 493.789 406.553 500.129 419.194 506.754 431.682 c 518.039
 452.944 529.5 474.116 541.062 495.651 c 541.594 494.745 542.066 494.288
 541.973 494.057 c 528.453 461.057 513.355 428.862 493.023 399.389 c 491.559
 397.268 489.508 395.549 487.727 393.643 c h
487.316 393.983 m f*
487.316 393.983 m 493.789 406.553 500.129 419.194 506.754 431.682 c 518.039
 452.944 536.371 483.612 547.93 505.143 c 548.465 504.241 548.938 503.784
 548.844 503.553 c 535.324 470.553 513.355 428.862 493.023 399.389 c 491.559
 397.268 489.508 395.549 487.727 393.643 c h
487.316 393.983 m S
497.977 235.764 m 434.844 165.803 374.949 91.397 310.738 20.245 c 323.18
 25.393 489.441 217.112 497.977 235.764 c h
497.977 235.764 m S
Q Q
showpage
%%Trailer
end restore
%%EOF
